EESchema Schematic File Version 4
LIBS:ice40-mezzanine-card-cache
EELAYER 30 0
EELAYER END
$Descr A4 11693 8268
encoding utf-8
Sheet 1 4
Title ""
Date ""
Rev ""
Comp ""
Comment1 ""
Comment2 ""
Comment3 ""
Comment4 ""
$EndDescr
$Sheet
S 6850 3350 1150 550 
U 5DE86F25
F0 "iCE40 SPI Programming" 50
F1 "ice40-spi.sch" 50
F2 "3V3" I L 6850 3500 50 
F3 "GND" I L 6850 3650 50 
$EndSheet
$Sheet
S 6800 2150 1150 600 
U 5DE96DEB
F0 "iCE40 Power" 50
F1 "ice40-power.sch" 50
F2 "VCC1V2" I L 6800 2350 50 
F3 "GND" I L 6800 2500 50 
F4 "VCC2V5" I L 6800 2250 50 
$EndSheet
$Comp
L gbtx:conn U1
U 1 1 5DDD6AED
P 3450 4450
F 0 "U1" H 3400 4615 50  0000 C CNN
F 1 "conn" H 3400 4524 50  0000 C CNN
F 2 "gbtx:conn_pinstrip" H 3450 4450 50  0001 C CNN
F 3 "" H 3450 4450 50  0001 C CNN
	1    3450 4450
	1    0    0    -1  
$EndComp
Text Label 2350 4600 0    50   ~ 0
VCC1V8
Text Label 2350 4700 0    50   ~ 0
VCC2V5
Text Label 2350 4800 0    50   ~ 0
VCC3V3
Text Label 2350 5000 0    50   ~ 0
GND
Text Label 1400 1550 0    50   ~ 0
GBTX_TMS_REM_P
Wire Wire Line
	1400 1550 2250 1550
Text Label 1400 1650 0    50   ~ 0
GBTX_TMS_REM_N
Wire Wire Line
	1400 1650 2250 1650
Text Label 1400 1750 0    50   ~ 0
GBTX_TDI_REM_P
Wire Wire Line
	1400 1750 2250 1750
Text Label 1400 1850 0    50   ~ 0
GBTX_TDI_REM_N
Wire Wire Line
	1400 1850 2250 1850
Text Label 1400 1950 0    50   ~ 0
GBTX_RST_REM_P
Wire Wire Line
	1400 1950 2250 1950
Text Label 1400 2050 0    50   ~ 0
GBTX_RST_REM_N
Wire Wire Line
	1400 2050 2250 2050
Text Label 1400 2150 0    50   ~ 0
GBTX_TCK_REM_P
Wire Wire Line
	1400 2150 2250 2150
Text Label 1400 2250 0    50   ~ 0
GBTX_TCK_REM_N
Wire Wire Line
	1400 2250 2250 2250
Text Label 1400 2400 0    50   ~ 0
GBTX_TMS_LOC_P
Wire Wire Line
	1400 2400 2250 2400
Text Label 1400 2500 0    50   ~ 0
GBTX_TMS_LOC_N
Wire Wire Line
	1400 2500 2250 2500
Text Label 1400 2600 0    50   ~ 0
GBTX_TDI_LOC_P
Wire Wire Line
	1400 2600 2250 2600
Text Label 1400 2700 0    50   ~ 0
GBTX_TDI_LOC_N
Wire Wire Line
	1400 2700 2250 2700
Text Label 1400 2800 0    50   ~ 0
GBTX_RST_LOC_P
Wire Wire Line
	1400 2800 2250 2800
Text Label 1400 2900 0    50   ~ 0
GBTX_RST_LOC_N
Wire Wire Line
	1400 2900 2250 2900
Text Label 1400 3000 0    50   ~ 0
GBTX_TCK_LOC_P
Wire Wire Line
	1400 3000 2250 3000
Text Label 1400 3100 0    50   ~ 0
GBTX_TCK_LOC_N
Wire Wire Line
	1400 3100 2250 3100
Text Label 2150 5100 0    50   ~ 0
GBTX_TMS_REM_P
Wire Wire Line
	2150 5100 3000 5100
Text Label 2150 5200 0    50   ~ 0
GBTX_TMS_REM_N
Wire Wire Line
	2150 5200 3000 5200
Text Label 2150 5400 0    50   ~ 0
GBTX_TDI_REM_P
Wire Wire Line
	2150 5400 3000 5400
Text Label 2150 5500 0    50   ~ 0
GBTX_TDI_REM_N
Wire Wire Line
	2150 5500 3000 5500
Text Label 2150 5700 0    50   ~ 0
GBTX_RST_REM_P
Wire Wire Line
	2150 5700 3000 5700
Text Label 2150 5800 0    50   ~ 0
GBTX_RST_REM_N
Wire Wire Line
	2150 5800 3000 5800
Text Label 2150 6000 0    50   ~ 0
GBTX_TCK_REM_P
Wire Wire Line
	2150 6000 3000 6000
Text Label 2150 6100 0    50   ~ 0
GBTX_TCK_REM_N
Wire Wire Line
	2150 6100 3000 6100
Text Label 2350 5300 0    50   ~ 0
GND
Text Label 2350 5600 0    50   ~ 0
GND
Text Label 2350 5900 0    50   ~ 0
GND
Wire Wire Line
	4650 5100 3800 5100
Text Label 4650 5100 2    50   ~ 0
GBTX_TCK_LOC_N
Wire Wire Line
	4650 5000 3800 5000
Text Label 4650 5000 2    50   ~ 0
GBTX_TCK_LOC_P
Wire Wire Line
	4650 4800 3800 4800
Text Label 4650 4800 2    50   ~ 0
GBTX_RST_LOC_N
Wire Wire Line
	4650 4700 3800 4700
Text Label 4650 4700 2    50   ~ 0
GBTX_RST_LOC_P
Wire Wire Line
	2150 7000 3000 7000
Text Label 2150 7000 0    50   ~ 0
GBTX_TDI_LOC_N
Wire Wire Line
	2150 6900 3000 6900
Text Label 2150 6900 0    50   ~ 0
GBTX_TDI_LOC_P
Wire Wire Line
	2150 6700 3000 6700
Text Label 2150 6700 0    50   ~ 0
GBTX_TMS_LOC_N
Wire Wire Line
	2150 6600 3000 6600
Text Label 2150 6600 0    50   ~ 0
GBTX_TMS_LOC_P
Text Label 2350 6200 0    50   ~ 0
GND
Text Label 2650 6800 0    50   ~ 0
GND
Text Label 4150 4600 2    50   ~ 0
GND
Text Label 4150 4900 2    50   ~ 0
GND
Text Label 4150 5200 2    50   ~ 0
GND
Wire Wire Line
	4150 5200 3800 5200
Wire Wire Line
	4150 4900 3800 4900
Wire Wire Line
	4150 4600 3800 4600
Wire Wire Line
	2650 6800 3000 6800
Wire Wire Line
	2350 4600 3000 4600
Wire Wire Line
	2350 4700 3000 4700
Wire Wire Line
	2350 4800 3000 4800
Wire Wire Line
	2350 5000 3000 5000
Wire Wire Line
	2350 5300 3000 5300
Wire Wire Line
	2350 5600 3000 5600
Wire Wire Line
	2350 5900 3000 5900
Wire Wire Line
	2350 6200 3000 6200
Text Label 1400 3250 0    50   ~ 0
GBTX_KEY_A_P
Wire Wire Line
	1400 3250 2250 3250
Text Label 1400 3350 0    50   ~ 0
GBTX_KEY_A_N
Wire Wire Line
	1400 3350 2250 3350
Text Label 1400 3450 0    50   ~ 0
GBTX_KEY_B_P
Wire Wire Line
	1400 3450 2250 3450
Text Label 1400 3550 0    50   ~ 0
GBTX_KEY_B_N
Wire Wire Line
	1400 3550 2250 3550
Text Label 1400 3700 0    50   ~ 0
GBTX_RXRDY
Wire Wire Line
	1400 3700 2250 3700
Text Label 1400 3800 0    50   ~ 0
GBTX_RXDATAVALID
Wire Wire Line
	1400 3800 2250 3800
Text Label 2150 6300 0    50   ~ 0
GBTX_KEY_A_P
Wire Wire Line
	2150 6300 3000 6300
Text Label 2150 6400 0    50   ~ 0
GBTX_KEY_A_N
Wire Wire Line
	2150 6400 3000 6400
Text Label 4650 5300 2    50   ~ 0
GBTX_KEY_B_P
Wire Wire Line
	4650 5300 3800 5300
Text Label 4650 5400 2    50   ~ 0
GBTX_KEY_B_N
Wire Wire Line
	4650 5400 3800 5400
Text Label 4650 6100 2    50   ~ 0
GBTX_RXRDY
Wire Wire Line
	4650 6100 3800 6100
Text Label 4650 6200 2    50   ~ 0
GBTX_RXDATAVALID
Wire Wire Line
	4650 6200 3800 6200
Text Label 2350 6500 0    50   ~ 0
GND
Wire Wire Line
	2350 6500 3000 6500
Text Label 4150 5500 2    50   ~ 0
GND
Wire Wire Line
	4150 5500 3800 5500
Text Label 2350 4900 0    50   ~ 0
VCC1V2
Wire Wire Line
	2350 4900 3000 4900
Text Label 5850 1150 2    50   ~ 0
iCE40_TMS_REM
Text Label 5850 1300 2    50   ~ 0
iCE40_RST_REM
Text Label 5850 1450 2    50   ~ 0
iCE40_TDI_REM
Text Label 5850 1600 2    50   ~ 0
iCE40_TCK_REM
Text Label 5850 1750 2    50   ~ 0
iCE40_TMS_LOC
Text Label 5850 1900 2    50   ~ 0
iCE40_RST_LOC
Text Label 5850 2050 2    50   ~ 0
iCE40_TDI_LOC
Text Label 5850 2200 2    50   ~ 0
iCE40_TCK_LOC
Wire Wire Line
	5850 2200 5150 2200
Wire Wire Line
	5850 2050 5150 2050
Wire Wire Line
	5850 1900 5150 1900
Wire Wire Line
	5850 1750 5150 1750
Wire Wire Line
	5850 1600 5150 1600
Wire Wire Line
	5850 1450 5150 1450
Wire Wire Line
	5850 1300 5150 1300
Wire Wire Line
	5150 1150 5850 1150
Text Label 4500 6300 2    50   ~ 0
iCE40_TMS_REM
Text Label 4500 6400 2    50   ~ 0
iCE40_RST_REM
Text Label 4500 6500 2    50   ~ 0
iCE40_TDI_REM
Text Label 4500 6600 2    50   ~ 0
iCE40_TCK_REM
Text Label 4500 6700 2    50   ~ 0
iCE40_TMS_LOC
Text Label 4500 6800 2    50   ~ 0
iCE40_RST_LOC
Text Label 4500 6900 2    50   ~ 0
iCE40_TDI_LOC
Text Label 4500 7000 2    50   ~ 0
iCE40_TCK_LOC
Wire Wire Line
	4500 7000 3800 7000
Wire Wire Line
	4500 6900 3800 6900
Wire Wire Line
	4500 6800 3800 6800
Wire Wire Line
	4500 6700 3800 6700
Wire Wire Line
	4500 6600 3800 6600
Wire Wire Line
	4500 6500 3800 6500
Wire Wire Line
	4500 6400 3800 6400
Wire Wire Line
	3800 6300 4500 6300
Text Label 1850 1300 0    50   ~ 0
VCC1V8
Wire Wire Line
	1850 1300 2250 1300
Text Label 1850 1200 0    50   ~ 0
VCC2V5
Wire Wire Line
	1850 1200 2250 1200
Text Label 6450 2350 0    50   ~ 0
VCC1V2
Wire Wire Line
	6450 2350 6800 2350
Text Label 6450 2500 0    50   ~ 0
GND
Wire Wire Line
	6450 2500 6800 2500
Text Label 6500 3500 0    50   ~ 0
VCC3V3
Wire Wire Line
	6500 3500 6850 3500
Text Label 6550 3650 0    50   ~ 0
GND
Wire Wire Line
	6550 3650 6850 3650
$Comp
L gbtx:Header2 U2
U 1 1 5E0FFEE9
P 8050 4600
F 0 "U2" H 8278 4551 50  0000 L CNN
F 1 "Header2" H 8278 4460 50  0000 L CNN
F 2 "Connector_PinHeader_1.00mm:PinHeader_1x02_P1.00mm_Vertical" H 8050 4600 50  0001 C CNN
F 3 "" H 8050 4600 50  0001 C CNN
	1    8050 4600
	1    0    0    -1  
$EndComp
$Comp
L gbtx:Header2 U3
U 1 1 5E1000F1
P 8050 5000
F 0 "U3" H 8278 4951 50  0000 L CNN
F 1 "Header2" H 8278 4860 50  0000 L CNN
F 2 "Connector_PinHeader_1.00mm:PinHeader_1x02_P1.00mm_Vertical" H 8050 5000 50  0001 C CNN
F 3 "" H 8050 5000 50  0001 C CNN
	1    8050 5000
	1    0    0    -1  
$EndComp
$Comp
L gbtx:Header2 U4
U 1 1 5E1002AA
P 8050 5300
F 0 "U4" H 8278 5251 50  0000 L CNN
F 1 "Header2" H 8278 5160 50  0000 L CNN
F 2 "Connector_PinHeader_1.00mm:PinHeader_1x02_P1.00mm_Vertical" H 8050 5300 50  0001 C CNN
F 3 "" H 8050 5300 50  0001 C CNN
	1    8050 5300
	1    0    0    -1  
$EndComp
$Comp
L gbtx:Header2 U5
U 1 1 5E1004CD
P 8050 5650
F 0 "U5" H 8278 5601 50  0000 L CNN
F 1 "Header2" H 8278 5510 50  0000 L CNN
F 2 "Connector_PinHeader_1.00mm:PinHeader_1x02_P1.00mm_Vertical" H 8050 5650 50  0001 C CNN
F 3 "" H 8050 5650 50  0001 C CNN
	1    8050 5650
	1    0    0    -1  
$EndComp
Text Label 7450 4650 0    50   ~ 0
VCC3V3
Text Label 7450 5050 0    50   ~ 0
VCC1V2
Text Label 7450 5350 0    50   ~ 0
VCC1V8
Text Label 7450 5700 0    50   ~ 0
VCC2V5
Text Label 7450 4750 0    50   ~ 0
GND
Text Label 7450 5150 0    50   ~ 0
GND
Text Label 7450 5450 0    50   ~ 0
GND
Text Label 7450 5800 0    50   ~ 0
GND
Wire Wire Line
	7450 4750 7900 4750
Wire Wire Line
	7450 5150 7900 5150
Wire Wire Line
	7450 5450 7900 5450
Wire Wire Line
	7450 5800 7900 5800
$Sheet
S 2250 1000 2900 2900
U 5DE6EB0A
F0 "iCE40 Banks" 50
F1 "ice40-banks.sch" 50
F2 "VCC1V8" I L 2250 1300 50 
F3 "ICE40_TMS_REM" O R 5150 1150 50 
F4 "ICE40_TDI_REM" O R 5150 1450 50 
F5 "ICE40_RST_REM" O R 5150 1300 50 
F6 "ICE40_TCK_REM" O R 5150 1600 50 
F7 "ICE40_TMS_LOC" O R 5150 1750 50 
F8 "ICE40_TDI_LOC" O R 5150 1900 50 
F9 "ICE40_RST_LOC" O R 5150 2050 50 
F10 "ICE40_TCK_LOC" O R 5150 2200 50 
F11 "VCC2V5" I L 2250 1200 50 
F12 "GBTX_RXRDY" I L 2250 3700 50 
F13 "GBTX_RXDATAVALID" I L 2250 3800 50 
F14 "GBTX_KEY_B_P" I L 2250 3450 50 
F15 "GBTX_KEY_B_N" I L 2250 3550 50 
F16 "GBTX_KEY_A_P" I L 2250 3250 50 
F17 "GBTX_KEY_A_N" I L 2250 3350 50 
F18 "GBTX_TMS_REM_P" I L 2250 1550 50 
F19 "GBTX_TMS_REM_N" I L 2250 1650 50 
F20 "GBTX_TDI_REM_P" I L 2250 1750 50 
F21 "GBTX_TDI_REM_N" I L 2250 1850 50 
F22 "GBTX_RST_REM_P" I L 2250 1950 50 
F23 "GBTX_RST_REM_N" I L 2250 2050 50 
F24 "GBTX_TCK_REM_P" I L 2250 2150 50 
F25 "GBTX_TCK_REM_N" I L 2250 2250 50 
F26 "GBTX_TMS_LOC_P" I L 2250 2400 50 
F27 "GBTX_TMS_LOC_N" I L 2250 2500 50 
F28 "GBTX_TDI_LOC_P" I L 2250 2600 50 
F29 "GBTX_TDI_LOC_N" I L 2250 2700 50 
F30 "GBTX_RST_LOC_P" I L 2250 2800 50 
F31 "GBTX_RST_LOC_N" I L 2250 2900 50 
F32 "GBTX_TCK_LOC_P" I L 2250 3000 50 
F33 "GBTX_TCK_LOC_N" I L 2250 3100 50 
F34 "GND" I L 2250 1400 50 
F35 "CB_OSC" I R 5150 2350 50 
$EndSheet
Text Notes 2250 750  0    50   ~ 0
Inputs to iCE40 named GBTX\nOutputs from iCE40 named iCE40
Text Label 1850 1400 0    50   ~ 0
GND
Wire Wire Line
	1850 1400 2250 1400
Text Label 4650 6000 2    50   ~ 0
CB_OSC
Wire Wire Line
	4650 6000 3800 6000
Text Label 6450 2250 0    50   ~ 0
VCC2V5
Wire Wire Line
	6450 2250 6800 2250
NoConn ~ 3800 5600
NoConn ~ 3800 5700
NoConn ~ 3800 5800
NoConn ~ 3800 5900
Text Label 5850 2350 2    50   ~ 0
CB_OSC
Wire Wire Line
	5850 2350 5150 2350
Wire Wire Line
	7450 4650 7900 4650
Wire Wire Line
	7450 5050 7900 5050
Wire Wire Line
	7450 5350 7900 5350
Wire Wire Line
	7450 5700 7900 5700
$EndSCHEMATC
