EESchema Schematic File Version 4
LIBS:ice40-mezzanine-card-cache
EELAYER 30 0
EELAYER END
$Descr A4 11693 8268
encoding utf-8
Sheet 4 4
Title ""
Date ""
Rev ""
Comp ""
Comment1 ""
Comment2 ""
Comment3 ""
Comment4 ""
$EndDescr
Text HLabel 2200 1300 0    50   Output ~ 0
ICE40_TMS_REM
Text HLabel 2200 1400 0    50   Output ~ 0
ICE40_TDI_REM
Text HLabel 2200 1500 0    50   Output ~ 0
ICE40_RST_REM
Text HLabel 2200 1600 0    50   Output ~ 0
ICE40_TCK_REM
Text HLabel 2200 1700 0    50   Output ~ 0
ICE40_TMS_LOC
Text HLabel 2200 1800 0    50   Output ~ 0
ICE40_TDI_LOC
Text HLabel 2200 1900 0    50   Output ~ 0
ICE40_RST_LOC
Text HLabel 2200 2000 0    50   Output ~ 0
ICE40_TCK_LOC
Wire Wire Line
	950  800  1050 800 
Wire Wire Line
	2200 1300 2500 1300
Wire Wire Line
	2200 1400 2500 1400
Wire Wire Line
	2500 1500 2200 1500
Wire Wire Line
	2200 1600 2500 1600
Wire Wire Line
	2500 1700 2200 1700
Wire Wire Line
	2200 1800 2500 1800
Wire Wire Line
	2500 1900 2200 1900
Wire Wire Line
	2200 2000 2500 2000
Text HLabel 1450 5500 0    50   Input ~ 0
GBTX_TMS_REM_P
Text HLabel 1450 5700 0    50   Input ~ 0
GBTX_TMS_REM_N
Text HLabel 1450 5850 0    50   Input ~ 0
GBTX_TDI_REM_P
Text HLabel 1450 6050 0    50   Input ~ 0
GBTX_TDI_REM_N
Text HLabel 1500 6200 0    50   Input ~ 0
GBTX_RST_REM_P
Text HLabel 1450 6400 0    50   Input ~ 0
GBTX_RST_REM_N
Text HLabel 1450 6550 0    50   Input ~ 0
GBTX_TCK_REM_P
Text HLabel 1450 6750 0    50   Input ~ 0
GBTX_TCK_REM_N
Text HLabel 1450 6900 0    50   Input ~ 0
GBTX_KEY_A_P
Text HLabel 1450 7100 0    50   Input ~ 0
GBTX_KEY_A_N
Text HLabel 3750 5500 0    50   Input ~ 0
GBTX_TMS_LOC_P
Text HLabel 3750 5700 0    50   Input ~ 0
GBTX_TMS_LOC_N
Text HLabel 3750 5850 0    50   Input ~ 0
GBTX_TDI_LOC_P
Text HLabel 3750 6050 0    50   Input ~ 0
GBTX_TDI_LOC_N
Text HLabel 3750 6200 0    50   Input ~ 0
GBTX_RST_LOC_P
Text HLabel 3750 6400 0    50   Input ~ 0
GBTX_RST_LOC_N
Text HLabel 3750 6550 0    50   Input ~ 0
GBTX_TCK_LOC_P
Text HLabel 3750 6750 0    50   Input ~ 0
GBTX_TCK_LOC_N
Text HLabel 3750 6900 0    50   Input ~ 0
GBTX_KEY_B_P
Text HLabel 3750 7100 0    50   Input ~ 0
GBTX_KEY_B_N
$Comp
L Device:R_Small R5
U 1 1 5DEBA676
P 1650 5600
F 0 "R5" H 1709 5646 50  0000 L CNN
F 1 "100" H 1709 5555 50  0000 L CNN
F 2 "Resistor_SMD:R_0603_1608Metric_Pad1.05x0.95mm_HandSolder" H 1650 5600 50  0001 C CNN
F 3 "~" H 1650 5600 50  0001 C CNN
	1    1650 5600
	1    0    0    -1  
$EndComp
$Comp
L Device:R_Small R6
U 1 1 5DEBC112
P 1650 5950
F 0 "R6" H 1709 5996 50  0000 L CNN
F 1 "100" H 1709 5905 50  0000 L CNN
F 2 "Resistor_SMD:R_0603_1608Metric_Pad1.05x0.95mm_HandSolder" H 1650 5950 50  0001 C CNN
F 3 "~" H 1650 5950 50  0001 C CNN
	1    1650 5950
	1    0    0    -1  
$EndComp
$Comp
L Device:R_Small R7
U 1 1 5DEBD43D
P 1650 6300
F 0 "R7" H 1709 6346 50  0000 L CNN
F 1 "100" H 1709 6255 50  0000 L CNN
F 2 "Resistor_SMD:R_0603_1608Metric_Pad1.05x0.95mm_HandSolder" H 1650 6300 50  0001 C CNN
F 3 "~" H 1650 6300 50  0001 C CNN
	1    1650 6300
	1    0    0    -1  
$EndComp
$Comp
L Device:R_Small R8
U 1 1 5DEBD447
P 1650 6650
F 0 "R8" H 1709 6696 50  0000 L CNN
F 1 "100" H 1709 6605 50  0000 L CNN
F 2 "Resistor_SMD:R_0603_1608Metric_Pad1.05x0.95mm_HandSolder" H 1650 6650 50  0001 C CNN
F 3 "~" H 1650 6650 50  0001 C CNN
	1    1650 6650
	1    0    0    -1  
$EndComp
$Comp
L Device:R_Small R9
U 1 1 5DEC115E
P 1650 7000
F 0 "R9" H 1709 7046 50  0000 L CNN
F 1 "100" H 1709 6955 50  0000 L CNN
F 2 "Resistor_SMD:R_0603_1608Metric_Pad1.05x0.95mm_HandSolder" H 1650 7000 50  0001 C CNN
F 3 "~" H 1650 7000 50  0001 C CNN
	1    1650 7000
	1    0    0    -1  
$EndComp
Wire Wire Line
	1450 5500 1650 5500
Wire Wire Line
	1650 5700 1450 5700
Wire Wire Line
	1450 5850 1650 5850
Wire Wire Line
	1650 6050 1450 6050
Wire Wire Line
	1500 6200 1650 6200
Wire Wire Line
	1650 6400 1450 6400
Wire Wire Line
	1450 6550 1650 6550
Wire Wire Line
	1650 6750 1450 6750
Wire Wire Line
	1450 6900 1650 6900
Wire Wire Line
	1650 7100 1450 7100
$Comp
L Device:R_Small R12
U 1 1 5DEDCBF4
P 3950 5600
F 0 "R12" H 4009 5646 50  0000 L CNN
F 1 "100" H 4009 5555 50  0000 L CNN
F 2 "Resistor_SMD:R_0603_1608Metric_Pad1.05x0.95mm_HandSolder" H 3950 5600 50  0001 C CNN
F 3 "~" H 3950 5600 50  0001 C CNN
	1    3950 5600
	1    0    0    -1  
$EndComp
$Comp
L Device:R_Small R13
U 1 1 5DEDCBFE
P 3950 5950
F 0 "R13" H 4009 5996 50  0000 L CNN
F 1 "100" H 4009 5905 50  0000 L CNN
F 2 "Resistor_SMD:R_0603_1608Metric_Pad1.05x0.95mm_HandSolder" H 3950 5950 50  0001 C CNN
F 3 "~" H 3950 5950 50  0001 C CNN
	1    3950 5950
	1    0    0    -1  
$EndComp
$Comp
L Device:R_Small R14
U 1 1 5DEDCC08
P 3950 6300
F 0 "R14" H 4009 6346 50  0000 L CNN
F 1 "100" H 4009 6255 50  0000 L CNN
F 2 "Resistor_SMD:R_0603_1608Metric_Pad1.05x0.95mm_HandSolder" H 3950 6300 50  0001 C CNN
F 3 "~" H 3950 6300 50  0001 C CNN
	1    3950 6300
	1    0    0    -1  
$EndComp
$Comp
L Device:R_Small R15
U 1 1 5DEDCC12
P 3950 6650
F 0 "R15" H 4009 6696 50  0000 L CNN
F 1 "100" H 4009 6605 50  0000 L CNN
F 2 "Resistor_SMD:R_0603_1608Metric_Pad1.05x0.95mm_HandSolder" H 3950 6650 50  0001 C CNN
F 3 "~" H 3950 6650 50  0001 C CNN
	1    3950 6650
	1    0    0    -1  
$EndComp
$Comp
L Device:R_Small R16
U 1 1 5DEDCC1C
P 3950 7000
F 0 "R16" H 4009 7046 50  0000 L CNN
F 1 "100" H 4009 6955 50  0000 L CNN
F 2 "Resistor_SMD:R_0603_1608Metric_Pad1.05x0.95mm_HandSolder" H 3950 7000 50  0001 C CNN
F 3 "~" H 3950 7000 50  0001 C CNN
	1    3950 7000
	1    0    0    -1  
$EndComp
Wire Wire Line
	3750 5500 3950 5500
Wire Wire Line
	3950 5700 3750 5700
Wire Wire Line
	3750 5850 3950 5850
Wire Wire Line
	3950 6050 3750 6050
Wire Wire Line
	3950 6400 3750 6400
Wire Wire Line
	3750 6550 3950 6550
Wire Wire Line
	3950 6750 3750 6750
Wire Wire Line
	3750 6900 3950 6900
Wire Wire Line
	3950 7100 3750 7100
Wire Wire Line
	3750 6200 3950 6200
Text Label 2600 5500 2    50   ~ 0
iCE40_TMS_REM_P
Text Label 2600 5700 2    50   ~ 0
iCE40_TMS_REM_N
Wire Wire Line
	2600 5500 1650 5500
Connection ~ 1650 5500
Wire Wire Line
	2600 5700 1650 5700
Connection ~ 1650 5700
Text Label 2600 5850 2    50   ~ 0
iCE40_TDI_REM_P
Text Label 2600 6050 2    50   ~ 0
iCE40_TDI_REM_N
Wire Wire Line
	2600 5850 1650 5850
Wire Wire Line
	2600 6050 1650 6050
Connection ~ 1650 5850
Connection ~ 1650 6050
Text Label 2600 6200 2    50   ~ 0
iCE40_RST_REM_P
Text Label 2600 6400 2    50   ~ 0
iCE40_RST_REM_N
Wire Wire Line
	2600 6200 1650 6200
Wire Wire Line
	2600 6400 1650 6400
Text Label 2600 6550 2    50   ~ 0
iCE40_TCK_REM_P
Text Label 2600 6750 2    50   ~ 0
iCE40_TCK_REM_N
Wire Wire Line
	2600 6550 1650 6550
Wire Wire Line
	2600 6750 1650 6750
Connection ~ 1650 6200
Connection ~ 1650 6400
Connection ~ 1650 6550
Connection ~ 1650 6750
Text Label 2600 6900 2    50   ~ 0
iCE40_KEY_A_P
Text Label 2600 7100 2    50   ~ 0
iCE40_KEY_A_N
Wire Wire Line
	2600 6900 1650 6900
Wire Wire Line
	2600 7100 1650 7100
Connection ~ 1650 6900
Connection ~ 1650 7100
Text Label 4900 5500 2    50   ~ 0
iCE40_TMS_LOC_P
Text Label 4900 5700 2    50   ~ 0
iCE40_TMS_LOC_N
Wire Wire Line
	4900 5500 3950 5500
Wire Wire Line
	4900 5700 3950 5700
Text Label 4900 5850 2    50   ~ 0
iCE40_TDI_LOC_P
Text Label 4900 6050 2    50   ~ 0
iCE40_TDI_LOC_N
Wire Wire Line
	4900 5850 3950 5850
Wire Wire Line
	4900 6050 3950 6050
Text Label 4900 6200 2    50   ~ 0
iCE40_RST_LOC_P
Text Label 4900 6400 2    50   ~ 0
iCE40_RST_LOC_N
Wire Wire Line
	4900 6200 3950 6200
Wire Wire Line
	4900 6400 3950 6400
Text Label 4900 6550 2    50   ~ 0
iCE40_TCK_LOC_P
Text Label 4900 6750 2    50   ~ 0
iCE40_TCK_LOC_N
Wire Wire Line
	4900 6550 3950 6550
Wire Wire Line
	4900 6750 3950 6750
Text Label 4900 6900 2    50   ~ 0
iCE40_KEY_B_P
Text Label 4900 7100 2    50   ~ 0
iCE40_KEY_B_N
Wire Wire Line
	4900 6900 3950 6900
Wire Wire Line
	4900 7100 3950 7100
Connection ~ 3950 5500
Connection ~ 3950 5700
Connection ~ 3950 5850
Connection ~ 3950 6050
Connection ~ 3950 6200
Connection ~ 3950 6400
Connection ~ 3950 6550
Connection ~ 3950 6750
Connection ~ 3950 6900
Connection ~ 3950 7100
Text HLabel 950  800  0    50   Input ~ 0
VCC1V8
$Comp
L Device:C_Small C9
U 1 1 5E163F54
P 1050 900
F 0 "C9" H 1142 946 50  0000 L CNN
F 1 "1u" H 1142 855 50  0000 L CNN
F 2 "Capacitor_SMD:C_0603_1608Metric_Pad1.05x0.95mm_HandSolder" H 1050 900 50  0001 C CNN
F 3 "~" H 1050 900 50  0001 C CNN
	1    1050 900 
	1    0    0    -1  
$EndComp
$Comp
L Device:C_Small C11
U 1 1 5E16438A
P 1350 900
F 0 "C11" H 1442 946 50  0000 L CNN
F 1 "10n" H 1442 855 50  0000 L CNN
F 2 "Capacitor_SMD:C_0603_1608Metric_Pad1.05x0.95mm_HandSolder" H 1350 900 50  0001 C CNN
F 3 "~" H 1350 900 50  0001 C CNN
	1    1350 900 
	1    0    0    -1  
$EndComp
Wire Wire Line
	1050 800  1350 800 
Connection ~ 1050 800 
Wire Wire Line
	1350 800  1650 800 
Wire Wire Line
	1650 800  1650 1100
Wire Wire Line
	1650 1200 2500 1200
Connection ~ 1350 800 
Wire Wire Line
	2500 1100 1650 1100
Connection ~ 1650 1100
Wire Wire Line
	1650 1100 1650 1200
Wire Wire Line
	1350 1000 1050 1000
Text HLabel 950  1000 0    50   Input ~ 0
GND
Wire Wire Line
	950  1000 1050 1000
Connection ~ 1050 1000
Wire Wire Line
	6400 1000 6500 1000
Text HLabel 6400 1000 0    50   Input ~ 0
VCC1V8
$Comp
L Device:C_Small C13
U 1 1 5E283789
P 6500 1100
F 0 "C13" H 6592 1146 50  0000 L CNN
F 1 "1u" H 6592 1055 50  0000 L CNN
F 2 "Capacitor_SMD:C_0603_1608Metric_Pad1.05x0.95mm_HandSolder" H 6500 1100 50  0001 C CNN
F 3 "~" H 6500 1100 50  0001 C CNN
	1    6500 1100
	1    0    0    -1  
$EndComp
$Comp
L Device:C_Small C15
U 1 1 5E283793
P 6800 1100
F 0 "C15" H 6892 1146 50  0000 L CNN
F 1 "10n" H 6892 1055 50  0000 L CNN
F 2 "Capacitor_SMD:C_0603_1608Metric_Pad1.05x0.95mm_HandSolder" H 6800 1100 50  0001 C CNN
F 3 "~" H 6800 1100 50  0001 C CNN
	1    6800 1100
	1    0    0    -1  
$EndComp
Wire Wire Line
	6500 1000 6800 1000
Connection ~ 6500 1000
Wire Wire Line
	6800 1000 7100 1000
Connection ~ 6800 1000
Wire Wire Line
	6800 1200 6500 1200
Text HLabel 6400 1200 0    50   Input ~ 0
GND
Wire Wire Line
	6400 1200 6500 1200
Connection ~ 6500 1200
Wire Wire Line
	7100 1000 7100 1300
Wire Wire Line
	7100 1400 7300 1400
Wire Wire Line
	7300 1300 7100 1300
Connection ~ 7100 1300
Wire Wire Line
	7100 1300 7100 1400
Text Notes 750  700  0    129  ~ 0
iCE40 Banks
Text Notes 750  5300 0    50   ~ 0
Termination Resistors
Text Label 5200 6950 0    50   ~ 0
iCE40_OUT_1_N
Wire Wire Line
	6100 6850 5200 6850
Wire Wire Line
	6100 6950 5200 6950
Wire Wire Line
	6100 7150 5200 7150
Wire Wire Line
	5200 7250 6100 7250
Text Label 5200 7250 0    50   ~ 0
iCE40_OUT_2_N
Text Label 5200 7150 0    50   ~ 0
iCE40_OUT_2_P
Text Label 5200 6850 0    50   ~ 0
iCE40_OUT_1_P
$Comp
L gbtx:Header5 U10
U 1 1 5E2A6727
P 6400 6800
F 0 "U10" H 6428 6601 50  0000 L CNN
F 1 "Header5" H 6428 6510 50  0000 L CNN
F 2 "Connector_PinHeader_1.00mm:PinHeader_1x05_P1.00mm_Vertical" H 6400 6800 50  0001 C CNN
F 3 "" H 6400 6800 50  0001 C CNN
	1    6400 6800
	1    0    0    -1  
$EndComp
Text HLabel 5750 7050 0    50   Input ~ 0
GND
Wire Wire Line
	5750 7050 6100 7050
$Comp
L gbtx:iCE40LP1K U6
U 5 1 5DE72257
P 8050 1650
F 0 "U6" H 8000 2365 50  0000 C CNN
F 1 "iCE40LP1K" H 8000 2274 50  0000 C CNN
F 2 "gbtx:iCE40LP1K-CM121" H 9200 1650 50  0001 C CNN
F 3 "" H 9200 1650 50  0001 C CNN
	5    8050 1650
	1    0    0    -1  
$EndComp
Text Label 6400 1900 0    50   ~ 0
iCE40_OUT_7
Wire Wire Line
	6400 1900 7300 1900
Text Label 6400 2000 0    50   ~ 0
iCE40_OUT_8
Wire Wire Line
	6400 2000 7300 2000
Text Label 6400 2100 0    50   ~ 0
iCE40_OUT_9
Wire Wire Line
	6400 2100 7300 2100
Text Label 6400 2200 0    50   ~ 0
iCE40_OUT_10
Wire Wire Line
	6400 2200 7300 2200
Text Label 6400 2400 0    50   ~ 0
iCE40_OUT_11
Wire Wire Line
	6400 2400 7300 2400
Text Label 6400 2500 0    50   ~ 0
iCE40_OUT_12
Wire Wire Line
	6400 2500 7300 2500
Text Label 9600 1500 2    50   ~ 0
iCE40_OUT_13
Wire Wire Line
	9600 1500 8700 1500
Text Label 9600 1900 2    50   ~ 0
iCE40_OUT_14
Wire Wire Line
	9600 1900 8700 1900
Text Label 9600 2100 2    50   ~ 0
iCE40_OUT_15
Wire Wire Line
	9600 2100 8700 2100
Text Label 9600 2200 2    50   ~ 0
iCE40_OUT_16
Wire Wire Line
	9600 2200 8700 2200
Text Label 1600 2200 0    50   ~ 0
iCE40_OUT_3
Wire Wire Line
	1600 2200 2500 2200
$Comp
L gbtx:iCE40LP1K U6
U 4 1 5DE71568
P 3400 1450
F 0 "U6" H 3300 2165 50  0000 C CNN
F 1 "iCE40LP1K" H 3300 2074 50  0000 C CNN
F 2 "gbtx:iCE40LP1K-CM121" H 4550 1450 50  0001 C CNN
F 3 "" H 4550 1450 50  0001 C CNN
	4    3400 1450
	1    0    0    -1  
$EndComp
Text Label 5000 1200 2    50   ~ 0
iCE40_OUT_4
Wire Wire Line
	5000 1200 4100 1200
Text Label 5000 1700 2    50   ~ 0
iCE40_OUT_5
Wire Wire Line
	5000 1700 4100 1700
Text Label 5000 1800 2    50   ~ 0
iCE40_OUT_6
Wire Wire Line
	5000 1800 4100 1800
$Comp
L gbtx:Header20 U11
U 1 1 5E1AFD32
P 6300 5350
F 0 "U11" H 5950 5450 50  0000 L CNN
F 1 "Header20" H 5950 4250 50  0000 L CNN
F 2 "Connector_PinHeader_1.00mm:PinHeader_2x10_P1.00mm_Vertical" H 6300 5350 50  0001 C CNN
F 3 "" H 6300 5350 50  0001 C CNN
	1    6300 5350
	1    0    0    -1  
$EndComp
Wire Wire Line
	1850 3400 2100 3400
Wire Wire Line
	3550 4200 4600 4200
Wire Wire Line
	3550 4100 4600 4100
Connection ~ 1750 2850
Wire Wire Line
	1750 2850 4600 2850
Connection ~ 950  4900
Wire Wire Line
	950  4900 4600 4900
Wire Wire Line
	4450 3600 3550 3600
Text Label 4450 3600 2    50   ~ 0
iCE40_OUT_21
Wire Wire Line
	4450 3500 3550 3500
Text Label 4450 3500 2    50   ~ 0
iCE40_OUT_20
Wire Wire Line
	1200 4100 2100 4100
Text Label 1200 4100 0    50   ~ 0
iCE40_OUT_19
Wire Wire Line
	1200 3900 2100 3900
Text Label 1200 3900 0    50   ~ 0
iCE40_OUT_18
Wire Wire Line
	1200 3800 2100 3800
Text Label 1200 3800 0    50   ~ 0
iCE40_OUT_17
Wire Wire Line
	1800 4300 2100 4300
Text HLabel 1800 4300 0    50   Input ~ 0
CB_OSC
Text Notes 8450 3150 0    50   ~ 0
GBIN -> GPIO if not used to drive clock nets
Wire Wire Line
	4600 4200 4600 4300
Connection ~ 4600 4200
Wire Wire Line
	4600 4100 4600 4200
Wire Wire Line
	4600 4200 4850 4200
$Comp
L Device:R_Small R18
U 1 1 5DED645F
P 4850 4400
F 0 "R18" H 4791 4354 50  0000 R CNN
F 1 "25" H 4791 4445 50  0000 R CNN
F 2 "Resistor_SMD:R_0603_1608Metric_Pad1.05x0.95mm_HandSolder" H 4850 4400 50  0001 C CNN
F 3 "~" H 4850 4400 50  0001 C CNN
	1    4850 4400
	-1   0    0    1   
$EndComp
Wire Wire Line
	950  3050 950  4900
Connection ~ 4600 4900
Wire Wire Line
	4600 4900 4850 4900
Wire Wire Line
	900  4900 950  4900
Connection ~ 4850 4200
Connection ~ 4600 4100
$Comp
L Device:D_Small D2
U 1 1 5DEC4132
P 4600 4700
F 0 "D2" H 4600 4495 50  0000 C CNN
F 1 "LED" H 4600 4600 50  0000 C CNN
F 2 "Diode_SMD:D_0603_1608Metric_Pad1.05x0.95mm_HandSolder" V 4600 4700 50  0001 C CNN
F 3 "~" V 4600 4700 50  0001 C CNN
	1    4600 4700
	0    -1   -1   0   
$EndComp
$Comp
L Device:D_Small D3
U 1 1 5DED5595
P 4850 4700
F 0 "D3" H 4850 4495 50  0000 C CNN
F 1 "LED" H 4850 4586 50  0000 C CNN
F 2 "Diode_SMD:D_0603_1608Metric_Pad1.05x0.95mm_HandSolder" V 4850 4700 50  0001 C CNN
F 3 "~" V 4850 4700 50  0001 C CNN
	1    4850 4700
	0    -1   -1   0   
$EndComp
$Comp
L Device:R_Small R11
U 1 1 5DED5F11
P 4600 4400
F 0 "R11" H 4541 4354 50  0000 R CNN
F 1 "25" H 4541 4445 50  0000 R CNN
F 2 "Resistor_SMD:R_0603_1608Metric_Pad1.05x0.95mm_HandSolder" H 4600 4400 50  0001 C CNN
F 3 "~" H 4600 4400 50  0001 C CNN
	1    4600 4400
	-1   0    0    1   
$EndComp
Wire Wire Line
	4850 4500 4850 4600
Wire Wire Line
	4850 4200 4850 4300
Wire Wire Line
	4600 4500 4600 4600
$Comp
L gbtx:iCE40LP1K U6
U 7 1 5DE75E3E
P 8250 3750
F 0 "U6" H 8100 4465 50  0000 C CNN
F 1 "iCE40LP1K" H 8100 4374 50  0000 C CNN
F 2 "gbtx:iCE40LP1K-CM121" H 9400 3750 50  0001 C CNN
F 3 "" H 9400 3750 50  0001 C CNN
	7    8250 3750
	1    0    0    -1  
$EndComp
Wire Wire Line
	1850 3300 1750 3300
Connection ~ 1850 3300
Wire Wire Line
	4600 4800 4600 4900
Wire Wire Line
	4850 4800 4850 4900
Wire Wire Line
	1350 2850 1750 2850
Connection ~ 1050 3050
Wire Wire Line
	950  3050 1050 3050
Text HLabel 900  4900 0    50   Input ~ 0
GND
Wire Wire Line
	1350 3050 1050 3050
Connection ~ 1350 2850
Connection ~ 1050 2850
Wire Wire Line
	1050 2850 1350 2850
$Comp
L Device:C_Small C12
U 1 1 5E32723E
P 1350 2950
F 0 "C12" H 1442 2996 50  0000 L CNN
F 1 "10n" H 1442 2905 50  0000 L CNN
F 2 "Capacitor_SMD:C_0603_1608Metric_Pad1.05x0.95mm_HandSolder" H 1350 2950 50  0001 C CNN
F 3 "~" H 1350 2950 50  0001 C CNN
	1    1350 2950
	1    0    0    -1  
$EndComp
$Comp
L Device:C_Small C10
U 1 1 5E327234
P 1050 2950
F 0 "C10" H 1142 2996 50  0000 L CNN
F 1 "1u" H 1142 2905 50  0000 L CNN
F 2 "Capacitor_SMD:C_0603_1608Metric_Pad1.05x0.95mm_HandSolder" H 1050 2950 50  0001 C CNN
F 3 "~" H 1050 2950 50  0001 C CNN
	1    1050 2950
	1    0    0    -1  
$EndComp
Text HLabel 950  2850 0    50   Input ~ 0
VCC2V5
Wire Wire Line
	950  2850 1050 2850
Wire Wire Line
	7150 3400 7150 3500
Connection ~ 7150 3400
Wire Wire Line
	7350 3400 7150 3400
Wire Wire Line
	7150 3500 7350 3500
Wire Wire Line
	7150 3100 7150 3400
Connection ~ 6550 3300
Wire Wire Line
	6450 3300 6550 3300
Text HLabel 6450 3300 0    50   Input ~ 0
GND
Wire Wire Line
	6850 3300 6550 3300
Connection ~ 6850 3100
Wire Wire Line
	6850 3100 7150 3100
Connection ~ 6550 3100
Wire Wire Line
	6550 3100 6850 3100
$Comp
L Device:C_Small C16
U 1 1 5E309422
P 6850 3200
F 0 "C16" H 6942 3246 50  0000 L CNN
F 1 "10n" H 6942 3155 50  0000 L CNN
F 2 "Capacitor_SMD:C_0603_1608Metric_Pad1.05x0.95mm_HandSolder" H 6850 3200 50  0001 C CNN
F 3 "~" H 6850 3200 50  0001 C CNN
	1    6850 3200
	1    0    0    -1  
$EndComp
$Comp
L Device:C_Small C14
U 1 1 5E309418
P 6550 3200
F 0 "C14" H 6642 3246 50  0000 L CNN
F 1 "1u" H 6642 3155 50  0000 L CNN
F 2 "Capacitor_SMD:C_0603_1608Metric_Pad1.05x0.95mm_HandSolder" H 6550 3200 50  0001 C CNN
F 3 "~" H 6550 3200 50  0001 C CNN
	1    6550 3200
	1    0    0    -1  
$EndComp
Text HLabel 6450 3100 0    50   Input ~ 0
VCC2V5
Wire Wire Line
	6450 3100 6550 3100
Wire Wire Line
	6400 4500 7350 4500
Wire Wire Line
	6400 4400 7350 4400
Text Label 6400 4500 0    50   ~ 0
iCE40_KEY_A_N
Text Label 6400 4400 0    50   ~ 0
iCE40_KEY_A_P
Wire Wire Line
	6400 4300 7350 4300
Wire Wire Line
	6400 4200 7350 4200
Text Label 6400 4300 0    50   ~ 0
iCE40_TCK_REM_N
Text Label 6400 4200 0    50   ~ 0
iCE40_TCK_REM_P
Wire Wire Line
	6400 4100 7350 4100
Wire Wire Line
	6400 4000 7350 4000
Text Label 6400 4100 0    50   ~ 0
iCE40_RST_REM_N
Text Label 6400 4000 0    50   ~ 0
iCE40_RST_REM_P
Wire Wire Line
	6400 3900 7350 3900
Wire Wire Line
	6400 3800 7350 3800
Text Label 6400 3900 0    50   ~ 0
iCE40_TDI_REM_N
Text Label 6400 3800 0    50   ~ 0
iCE40_TDI_REM_P
Wire Wire Line
	6400 3700 7350 3700
Wire Wire Line
	6400 3600 7350 3600
Text Label 6400 3700 0    50   ~ 0
iCE40_TMS_REM_N
Text Label 6400 3600 0    50   ~ 0
iCE40_TMS_REM_P
Text HLabel 1800 3500 0    50   Input ~ 0
GBTX_RXRDY
Text HLabel 1800 3600 0    50   Input ~ 0
GBTX_RXDATAVALID
NoConn ~ 2100 4400
Wire Wire Line
	1800 3600 2100 3600
Wire Wire Line
	1800 3500 2100 3500
Wire Wire Line
	1750 3300 1750 2850
Wire Wire Line
	2100 3300 1850 3300
Wire Wire Line
	1850 3400 1850 3300
Wire Wire Line
	4600 2850 4850 2850
Connection ~ 4600 2850
Wire Wire Line
	4600 3350 4600 2850
Wire Wire Line
	4600 4100 4600 3550
Wire Wire Line
	4850 3800 4850 4200
Wire Wire Line
	4850 2850 4850 3600
$Comp
L Device:R_Small R17
U 1 1 5DEC8F43
P 4850 3700
F 0 "R17" H 4909 3746 50  0000 L CNN
F 1 "4k7" H 4909 3655 50  0000 L CNN
F 2 "Resistor_SMD:R_0603_1608Metric_Pad1.05x0.95mm_HandSolder" H 4850 3700 50  0001 C CNN
F 3 "~" H 4850 3700 50  0001 C CNN
	1    4850 3700
	1    0    0    -1  
$EndComp
$Comp
L Device:R_Small R10
U 1 1 5DEC88B3
P 4600 3450
F 0 "R10" H 4659 3496 50  0000 L CNN
F 1 "4k7" H 4659 3405 50  0000 L CNN
F 2 "Resistor_SMD:R_0603_1608Metric_Pad1.05x0.95mm_HandSolder" H 4600 3450 50  0001 C CNN
F 3 "~" H 4600 3450 50  0001 C CNN
	1    4600 3450
	1    0    0    -1  
$EndComp
$Comp
L gbtx:iCE40LP1K U6
U 6 1 5DE737E9
P 2800 3650
F 0 "U6" H 2825 4365 50  0000 C CNN
F 1 "iCE40LP1K" H 2825 4274 50  0000 C CNN
F 2 "gbtx:iCE40LP1K-CM121" H 3950 3650 50  0001 C CNN
F 3 "" H 3950 3650 50  0001 C CNN
	6    2800 3650
	1    0    0    -1  
$EndComp
Text Label 9800 3800 2    50   ~ 0
iCE40_TMS_LOC_P
Text Label 9800 3900 2    50   ~ 0
iCE40_TMS_LOC_N
Wire Wire Line
	9800 3800 8850 3800
Wire Wire Line
	9800 3900 8850 3900
Text Label 9800 4000 2    50   ~ 0
iCE40_TDI_LOC_P
Text Label 9800 4100 2    50   ~ 0
iCE40_TDI_LOC_N
Wire Wire Line
	9800 4000 8850 4000
Wire Wire Line
	9800 4100 8850 4100
Text Label 9800 4200 2    50   ~ 0
iCE40_RST_LOC_P
Text Label 9800 4300 2    50   ~ 0
iCE40_RST_LOC_N
Wire Wire Line
	9800 4200 8850 4200
Wire Wire Line
	9800 4300 8850 4300
Text Label 9800 4400 2    50   ~ 0
iCE40_TCK_LOC_P
Text Label 9800 4500 2    50   ~ 0
iCE40_TCK_LOC_N
Wire Wire Line
	9800 4400 8850 4400
Wire Wire Line
	9800 4500 8850 4500
Text Label 9800 4600 2    50   ~ 0
iCE40_KEY_B_P
Text Label 9800 4700 2    50   ~ 0
iCE40_KEY_B_N
Wire Wire Line
	9800 4600 8850 4600
Wire Wire Line
	9800 4700 8850 4700
Text Label 9750 3500 2    50   ~ 0
iCE40_OUT_1_N
Wire Wire Line
	8850 3400 9750 3400
Wire Wire Line
	8850 3500 9750 3500
Wire Wire Line
	8850 3600 9750 3600
Wire Wire Line
	9750 3700 8850 3700
Text Label 9750 3700 2    50   ~ 0
iCE40_OUT_2_N
Text Label 9750 3600 2    50   ~ 0
iCE40_OUT_2_P
Text Label 9750 3400 2    50   ~ 0
iCE40_OUT_1_P
Text Label 5200 5400 0    50   ~ 0
iCE40_OUT_3
Text Label 5200 5500 0    50   ~ 0
iCE40_OUT_4
Text Label 5200 5600 0    50   ~ 0
iCE40_OUT_5
Text Label 5200 5700 0    50   ~ 0
iCE40_OUT_6
Text Label 5200 5800 0    50   ~ 0
iCE40_OUT_7
Text Label 5200 5900 0    50   ~ 0
iCE40_OUT_8
Text Label 5200 6000 0    50   ~ 0
iCE40_OUT_9
Text Label 5200 6100 0    50   ~ 0
iCE40_OUT_10
Text Label 5200 6200 0    50   ~ 0
iCE40_OUT_11
Text Label 5200 6300 0    50   ~ 0
iCE40_OUT_12
Wire Wire Line
	5200 5400 5800 5400
Wire Wire Line
	5200 5500 5800 5500
Wire Wire Line
	5200 5600 5800 5600
Wire Wire Line
	5200 5700 5800 5700
Wire Wire Line
	5200 5800 5800 5800
Wire Wire Line
	5200 5900 5800 5900
Wire Wire Line
	5200 6000 5800 6000
Wire Wire Line
	5200 6100 5800 6100
Wire Wire Line
	5200 6200 5800 6200
Wire Wire Line
	5200 6300 5800 6300
Text Label 6900 5400 2    50   ~ 0
iCE40_OUT_13
Text Label 6900 5500 2    50   ~ 0
iCE40_OUT_14
Text Label 6900 5600 2    50   ~ 0
iCE40_OUT_15
Text Label 6900 5700 2    50   ~ 0
iCE40_OUT_16
Text Label 6900 5800 2    50   ~ 0
iCE40_OUT_17
Text Label 6900 5900 2    50   ~ 0
iCE40_OUT_18
Text Label 6900 6000 2    50   ~ 0
iCE40_OUT_19
Text Label 6900 6100 2    50   ~ 0
iCE40_OUT_20
Text Label 6900 6200 2    50   ~ 0
iCE40_OUT_21
Text Label 6900 6300 2    50   ~ 0
GND
Wire Wire Line
	6900 5400 6300 5400
Wire Wire Line
	6900 5500 6300 5500
Wire Wire Line
	6900 5600 6300 5600
Wire Wire Line
	6900 5700 6300 5700
Wire Wire Line
	6900 5800 6300 5800
Wire Wire Line
	6900 5900 6300 5900
Wire Wire Line
	6900 6000 6300 6000
Wire Wire Line
	6900 6100 6300 6100
Wire Wire Line
	6900 6200 6300 6200
Wire Wire Line
	6900 6300 6300 6300
NoConn ~ 2500 2100
NoConn ~ 2500 2300
NoConn ~ 2500 2400
NoConn ~ 2500 2500
NoConn ~ 4100 1100
NoConn ~ 4100 1300
NoConn ~ 4100 1400
NoConn ~ 4100 1500
NoConn ~ 4100 1600
NoConn ~ 4100 1900
NoConn ~ 4100 2000
NoConn ~ 4100 2100
NoConn ~ 7300 1500
NoConn ~ 7300 1600
NoConn ~ 7300 1700
NoConn ~ 7300 1800
NoConn ~ 7300 2300
NoConn ~ 7300 2600
NoConn ~ 7300 2700
NoConn ~ 7300 2800
NoConn ~ 8700 1300
NoConn ~ 8700 1400
NoConn ~ 8700 1600
NoConn ~ 8700 1700
NoConn ~ 8700 1800
NoConn ~ 8700 2000
NoConn ~ 8700 2300
NoConn ~ 2100 3700
NoConn ~ 2100 4000
NoConn ~ 2100 4200
NoConn ~ 3550 3300
NoConn ~ 3550 3400
NoConn ~ 3550 3700
NoConn ~ 3550 3800
NoConn ~ 3550 3900
NoConn ~ 3550 4000
$EndSCHEMATC
